<?xml version="1.0" encoding="UTF-8"?>
<svg width="100px" height="31px" viewBox="0 0 100 31" version="1.1" xmlns="http://www.w3.org/2000/svg" xmlns:xlink="http://www.w3.org/1999/xlink">
    <!-- Generator: Sketch 49.3 (51167) - http://www.bohemiancoding.com/sketch -->
    <title>echic_logo</title>
    <desc>Created with Sketch.</desc>
    <defs></defs>
    <g id="Symbols" stroke="none" stroke-width="1" fill="none" fill-rule="evenodd">
        <g id="mvp_header" transform="translate(-80.000000, -27.000000)">
            <g id="Group-19">
                <g id="Menu">
                    <g id="echic_logo" transform="translate(80.000000, 27.000000)">
                        <path d="M9.84731183,14.5705882 C8.75743369,14.5705882 7.84488889,14.9071373 7.10940502,15.5794118 C6.37419355,16.2522353 5.89721864,17.2333333 5.67929749,18.5232549 L13.9739211,18.5232549 C13.7012473,17.2058824 13.2182796,16.2176471 12.5233835,15.5588235 C11.8287599,14.9 10.9363728,14.5705882 9.84731183,14.5705882 M9.96962007,10 C11.9578781,10 13.633147,10.4672157 14.9954265,11.4 C16.3571613,12.3336078 17.3655914,13.5894902 18.0193548,15.1676471 C18.6728459,16.7466275 19,18.5100784 19,20.4588235 L19,22.1058824 L5.63870968,22.1058824 C5.91056631,23.5058824 6.50303943,24.5764706 7.41585663,25.3173725 C8.32840143,26.0588235 9.72473118,26.4294118 11.6040287,26.4294118 C12.693362,26.4294118 13.6740072,26.2787059 14.5462366,25.9764706 C15.4176487,25.6745098 16.3571613,25.2352941 17.3655914,24.6588235 L18.9182796,28.5294118 C17.9101219,29.3257647 16.8202437,29.936549 15.6494624,30.3614902 C14.4778638,30.7869804 13.0883441,31 11.4817204,31 C7.72230824,31 4.86863082,30.0735294 2.92123297,28.2205882 C0.973562724,26.3676471 0,23.8081176 0,20.5411765 C0,18.4277255 0.401519713,16.5747843 1.20510394,14.9823529 C2.00841577,13.3904706 3.15958423,12.1617647 4.65779211,11.2970588 C6.1557276,10.4323529 7.92660932,10 9.96962007,10" id="Fill-1" fill="#5E0E8B"></path>
                        <path d="M36.400952,2 C37.3815095,2 38.5796962,2.15046281 39.9963294,2.45029614 C41.4121454,2.75122176 42.6653523,3.20179098 43.755133,3.80227686 L42.1208706,7.61163476 L41.0994565,7.3249089 C40.037186,6.9972222 39.1925447,6.77193759 38.5663498,6.648782 C37.9393377,6.52589949 37.1630631,6.46473131 36.2372534,6.46473131 C34.7666896,6.46473131 33.445116,6.87433968 32.2744394,7.69355644 C31.1029456,8.51277319 30.1836729,9.68698387 29.5166215,11.2161885 C28.8487529,12.7459392 28.5156357,14.5337433 28.5156357,16.5817851 C28.5156357,18.4119154 28.8078963,20.0842098 29.3937794,21.5994878 C29.9793901,23.1150387 30.8302961,24.3173759 31.9473145,25.2043145 C33.0640605,26.0920724 34.3850893,26.5355418 35.9106733,26.5355418 C37.9259913,26.5355418 39.9554728,26.1125528 41.9983009,25.2654827 L44,29.1979962 C42.9649671,29.7446869 41.7052232,30.1807832 40.2207681,30.5084699 C38.7360407,30.8364297 37.394856,31 36.1966692,31 C33.390913,31 30.9937224,30.3722069 29.0059145,29.1160745 C27.0172895,27.8602153 25.5189432,26.1464138 24.5116928,23.9754894 C23.5036252,21.8042919 23,19.3540146 23,16.623019 C23,13.7830676 23.5515636,11.2568762 24.6546907,9.04526408 C25.7578179,6.83310577 27.3237137,5.10646993 29.3531952,3.86344504 C31.3818597,2.62123937 33.7311119,2 36.400952,2" id="Fill-3" fill="#5E0E8B"></path>
                        <path d="M67,17.5128658 L67,30 L61.6187364,30 L61.6187364,17.7590485 C61.6187364,16.5267656 61.3631954,15.5685971 60.8532171,14.8837216 C60.3421351,14.1996676 59.6320842,13.8568191 58.7211329,13.8568191 C57.7828613,13.8568191 56.8997821,14.0695933 56.0718954,14.4937725 C55.2440087,14.9184994 54.3336093,15.4867187 53.3398693,16.1981568 L53.3398693,30 L48,30 L48,1.45211093 L53.3398693,1 L53.3398693,11.5976336 C54.4713145,10.9135797 55.643878,10.3795904 56.8583878,9.9959396 C58.0723457,9.61256268 59.1623965,9.42060037 60.1288163,9.42060037 C62.6673929,9.42060037 64.4473493,10.1331338 65.4684096,11.5568314 C66.4889179,12.9808028 67,14.9658738 67,17.5128658" id="Fill-5" fill="#5E0E8B"></path>
                        <polygon id="Fill-7" fill="#5E0E8B" points="78 10 78 30 73 30 73 12.3378694"></polygon>
                        <path d="M93.2957746,10 C94.1997809,10 95.3174178,10.1924314 96.6478873,10.5767451 C97.9778247,10.9613333 99.0951956,11.468902 100,12.1 L98.5232081,15.9296863 C97.5122535,15.4630196 96.6079812,15.1198824 95.8098592,14.9002745 C95.0117371,14.6806667 94.1867449,14.5705882 93.3354147,14.5705882 C91.899061,14.5705882 90.7079969,15.1336078 89.7640845,16.2588235 C88.819374,17.3845882 88.3471518,18.8120392 88.3471518,20.5411765 C88.3471518,22.2705882 88.812457,23.6848627 89.7438654,24.7826275 C90.6750078,25.8806667 91.8721909,26.4296863 93.3354147,26.4296863 C94.1867449,26.4296863 95.0117371,26.3201569 95.8098592,26.1 C96.6079812,25.8806667 98.9887793,24.8902353 100,24.4232941 L100,28.9411765 C99.1750078,29.6 98.097543,30.1083922 96.7676056,30.4647059 C95.4368701,30.8212941 94.2795931,31 93.2957746,31 C91.2206573,31 89.4049296,30.5739608 87.8483255,29.7238039 C86.2922535,28.873098 85.0950704,27.6583922 84.2567762,26.0794118 C83.4190141,24.5012549 83,22.655451 83,20.5411765 C83,18.4277255 83.4190141,16.5747843 84.2567762,14.9823529 C85.0950704,13.3907451 86.2922535,12.1617647 87.8483255,11.2973333 C89.4049296,10.4323529 91.2206573,10 93.2957746,10" id="Fill-9" fill="#5E0E8B"></path>
                        <path d="M74.96,1.38023846 C75.2467083,0.739738462 76.0954583,0.215546154 76.8462083,0.215546154 L79.0132917,0.215546154 C79.7640417,0.215546154 80.07875,0.710392308 79.712125,1.31535385 L76.7426667,6.21804615 C76.3760417,6.82273846 75.5080417,7.10246923 74.8135833,6.83943077 L74.1127083,6.57423846 C73.41825,6.3112 73.0842917,5.57189231 73.371,4.93112308 L74.96,1.38023846 Z" id="Fill-11" fill="#A82622"></path>
                    </g>
                </g>
            </g>
        </g>
    </g>
</svg>