<?xml version="1.0" encoding="UTF-8"?>
<svg width="33px" height="33px" viewBox="0 0 33 33" version="1.1" xmlns="http://www.w3.org/2000/svg" xmlns:xlink="http://www.w3.org/1999/xlink">
    <!-- Generator: Sketch 49.3 (51167) - http://www.bohemiancoding.com/sketch -->
    <title>Instagram</title>
    <desc>Created with Sketch.</desc>
    <defs></defs>
    <g id="Symbols" stroke="none" stroke-width="1" fill="none" fill-rule="evenodd" opacity="0.4">
        <g id="footer_mvp" transform="translate(-988.000000, -39.000000)" fill="#FFFFFF">
            <g id="Group-2">
                <g id="Group" transform="translate(379.000000, 39.000000)">
                    <g id="Group-15" transform="translate(546.000000, 0.000000)">
                        <g id="socials">
                            <path d="M79.5000327,0 C83.981131,0 84.5430285,0.0189940874 86.3029289,0.0992932294 C88.0591615,0.179395881 89.2586054,0.458346979 90.308127,0.86626138 C91.3931478,1.28786462 92.3133131,1.85205452 93.2306621,2.76933795 C94.1479455,3.68668687 94.7121354,4.60685216 95.1338041,5.69187303 C95.541653,6.74139461 95.8206041,7.94083848 95.9007068,9.6970711 C95.9810059,11.4569715 96,12.018869 96,16.5000327 C96,20.981131 95.9810059,21.5430285 95.9007068,23.3029289 C95.8206041,25.0591615 95.541653,26.2586054 95.1338041,27.308127 C94.7121354,28.3931478 94.1479455,29.3133131 93.2306621,30.2306621 C92.3133131,31.1479455 91.3931478,31.7121354 90.308127,32.1338041 C89.2586054,32.541653 88.0591615,32.8206041 86.3029289,32.9007068 C84.5430285,32.9810059 83.981131,33 79.5000327,33 C75.018869,33 74.4569715,32.9810059 72.6970711,32.9007068 C70.9408385,32.8206041 69.7413946,32.541653 68.691873,32.1338041 C67.6068522,31.7121354 66.6866869,31.1479455 65.7693379,30.2306621 C64.8520545,29.3133131 64.2878646,28.3931478 63.8662614,27.308127 C63.458347,26.2586054 63.1793959,25.0591615 63.0992932,23.3029289 C63.0189941,21.5430285 63,20.981131 63,16.5000327 C63,12.018869 63.0189941,11.4569715 63.0992932,9.6970711 C63.1793959,7.94083848 63.458347,6.74139461 63.8662614,5.69187303 C64.2878646,4.60685216 64.8520545,3.68668687 65.7693379,2.76933795 C66.6866869,1.85205452 67.6068522,1.28786462 68.691873,0.86626138 C69.7413946,0.458346979 70.9408385,0.179395881 72.6970711,0.0992932294 C74.4569715,0.0189940874 75.018869,0 79.5000327,0 Z M79.5000327,2.97296766 C75.0943214,2.97296766 74.5724425,2.98980035 72.8325841,3.06918254 C71.2238504,3.14253902 70.3501879,3.4113381 69.7687723,3.63730224 C68.9985948,3.93662286 68.4489452,4.29417018 67.8715904,4.87159044 C67.2941702,5.4489452 66.9366229,5.99859479 66.6373022,6.76877229 C66.4113381,7.35018786 66.142539,8.22385038 66.0691825,9.83258409 C65.9898004,11.5724425 65.9729677,12.0943214 65.9729677,16.5000327 C65.9729677,20.9056786 65.9898004,21.4275575 66.0691825,23.1674159 C66.142539,24.7761496 66.4113381,25.6498121 66.6373022,26.2312277 C66.9366229,27.0014052 67.2942357,27.5510548 67.8715904,28.1284096 C68.4489452,28.7058298 68.9985948,29.0633771 69.7687723,29.3626978 C70.3501879,29.5886619 71.2238504,29.857461 72.8325841,29.9308175 C74.572246,30.0101996 75.0939939,30.0270323 79.5000327,30.0270323 C83.9060061,30.0270323 84.4278195,30.0101996 86.1674159,29.9308175 C87.7761496,29.857461 88.6498121,29.5886619 89.2312277,29.3626978 C90.0014052,29.0633771 90.5510548,28.7058298 91.1284096,28.1284096 C91.7058298,27.5510548 92.0633771,27.0014052 92.3626978,26.2312277 C92.5886619,25.6498121 92.857461,24.7761496 92.9308175,23.1674159 C93.0101996,21.4275575 93.0270323,20.9056786 93.0270323,16.5000327 C93.0270323,12.0943214 93.0101996,11.5724425 92.9308175,9.83258409 C92.857461,8.22385038 92.5886619,7.35018786 92.3626978,6.76877229 C92.0633771,5.99859479 91.7058298,5.4489452 91.1284096,4.87159044 C90.5510548,4.29417018 90.0014052,3.93662286 89.2312277,3.63730224 C88.6498121,3.4113381 87.7761496,3.14253902 86.1674159,3.06918254 C84.4275575,2.98980035 83.9056786,2.97296766 79.5000327,2.97296766 Z M79.5000327,8.02703234 C84.1795209,8.02703234 87.9729677,11.8204791 87.9729677,16.5000327 C87.9729677,21.1795209 84.1795209,24.9729677 79.5000327,24.9729677 C74.8204791,24.9729677 71.0270323,21.1795209 71.0270323,16.5000327 C71.0270323,11.8204791 74.8204791,8.02703234 79.5000327,8.02703234 Z M79.5000327,22 C82.5375803,22 85,19.5375803 85,16.5000327 C85,13.4624197 82.5375803,11 79.5000327,11 C76.4624197,11 74,13.4624197 74,16.5000327 C74,19.5375803 76.4624197,22 79.5000327,22 Z M90.2877574,7.69227792 C90.2877574,8.78581338 89.4012575,9.67224779 88.3077221,9.67224779 C87.2142521,9.67224779 86.3277522,8.78581338 86.3277522,7.69227792 C86.3277522,6.59874246 87.2142521,5.71224255 88.3077221,5.71224255 C89.4012575,5.71224255 90.2877574,6.59874246 90.2877574,7.69227792 Z" id="Instagram"></path>
                        </g>
                    </g>
                </g>
            </g>
        </g>
    </g>
</svg>