<?xml version="1.0" encoding="utf-8"?>
<!-- Generator: Adobe Illustrator 17.0.0, SVG Export Plug-In . SVG Version: 6.00 Build 0)  -->
<!DOCTYPE svg PUBLIC "-//W3C//DTD SVG 1.1//EN" "http://www.w3.org/Graphics/SVG/1.1/DTD/svg11.dtd">
<svg version="1.1" id="Layer_1" xmlns="http://www.w3.org/2000/svg" xmlns:xlink="http://www.w3.org/1999/xlink" x="0px" y="0px"
	 width="32px" height="32px" viewBox="105.382 -0.5 32 32" enable-background="new 105.382 -0.5 32 32" xml:space="preserve">
<path fill="#5E0E8B" d="M137.406,28.188c0,1.835-1.501,3.336-3.336,3.336h-25.352c-1.835,0-3.336-1.501-3.336-3.336V2.836
	c0-1.835,1.501-3.336,3.336-3.336h25.352c1.835,0,3.336,1.501,3.336,3.336V28.188z"/>
<path id="Fill-3_1_" fill="#FFFFFF" d="M119.528,4.554c0.79,0,1.754,0.121,2.895,0.363c1.14,0.242,2.149,0.605,3.027,1.089
	l-1.316,3.067l-0.822-0.231c-0.855-0.264-1.536-0.445-2.04-0.544c-0.505-0.099-1.13-0.148-1.875-0.148
	c-1.184,0-2.248,0.33-3.191,0.99c-0.943,0.66-1.684,1.605-2.221,2.837c-0.538,1.232-0.806,2.671-0.806,4.321
	c0,1.474,0.235,2.82,0.707,4.04c0.472,1.22,1.157,2.189,2.056,2.903c0.899,0.715,1.963,1.072,3.191,1.072
	c1.623,0,3.257-0.341,4.902-1.023l1.612,3.167c-0.833,0.44-1.848,0.791-3.043,1.055c-1.196,0.264-2.276,0.396-3.24,0.396
	c-2.259,0-4.19-0.506-5.79-1.517c-1.601-1.011-2.808-2.391-3.619-4.139c-0.812-1.748-1.217-3.721-1.217-5.921
	c0-2.287,0.444-4.321,1.332-6.102c0.888-1.781,2.149-3.172,3.783-4.173C115.487,5.055,117.378,4.554,119.528,4.554"/>
<polygon id="Fill-7_1_" fill="#FFFFFF" points="132.143,10.996 132.143,27.101 128.117,27.101 128.117,12.879 "/>
<path id="Fill-11_1_" fill="#A82622" d="M129.696,4.055c0.231-0.516,0.914-0.938,1.519-0.938h1.745c0.605,0,0.858,0.398,0.563,0.886
	l-2.391,3.948c-0.295,0.487-0.994,0.712-1.553,0.5l-0.564-0.214c-0.559-0.212-0.828-0.807-0.597-1.323L129.696,4.055z"/>
</svg>
