<?xml version="1.0" encoding="UTF-8"?>
<svg width="33px" height="33px" viewBox="0 0 33 33" version="1.1" xmlns="http://www.w3.org/2000/svg" xmlns:xlink="http://www.w3.org/1999/xlink">
    <!-- Generator: Sketch 49.3 (51167) - http://www.bohemiancoding.com/sketch -->
    <title>Facebook</title>
    <desc>Created with Sketch.</desc>
    <defs></defs>
    <g id="Symbols" stroke="none" stroke-width="1" fill="none" fill-rule="evenodd" opacity="0.4">
        <g id="footer_mvp" transform="translate(-925.000000, -39.000000)" fill="#FFFFFF">
            <g id="Group-2">
                <g id="Group" transform="translate(379.000000, 39.000000)">
                    <g id="Group-15" transform="translate(546.000000, 0.000000)">
                        <g id="socials">
                            <path d="M17.6263692,33 L1.82134667,33 C0.815149951,33 0,32.1843442 0,31.1785394 L0,1.82133254 C0,0.815271672 0.815277999,0 1.82134667,0 L31.1787814,0 C32.184594,0 33,0.815271672 33,1.82133254 L33,31.1785394 C33,32.1844722 32.1844659,33 31.1787814,33 L22.7695224,33 L22.7695224,20.2205813 L27.0589833,20.2205813 L27.7012692,15.2402151 L22.7695224,15.2402151 L22.7695224,12.060566 C22.7695224,10.618635 23.1699267,9.63600666 25.2376366,9.63600666 L27.8749015,9.63485424 L27.8749015,5.18037475 C27.4187966,5.11968074 25.8532887,4.98407956 24.031942,4.98407956 C20.2295735,4.98407956 17.6263692,7.3050493 17.6263692,11.5673311 L17.6263692,15.2402151 L13.3258962,15.2402151 L13.3258962,20.2205813 L17.6263692,20.2205813 L17.6263692,33 L17.6263692,33 Z" id="Facebook"></path>
                        </g>
                    </g>
                </g>
            </g>
        </g>
    </g>
</svg>