<?xml version="1.0" encoding="UTF-8"?>
<svg width="52px" height="65px" viewBox="0 0 52 65" version="1.1" xmlns="http://www.w3.org/2000/svg" xmlns:xlink="http://www.w3.org/1999/xlink">
    <!-- Generator: Sketch 49.3 (51167) - http://www.bohemiancoding.com/sketch -->
    <title>eyes_brows_booking_icon</title>
    <desc>Created with Sketch.</desc>
    <defs>
        <path d="M0.426636364,26.2807156 C0.426636364,40.784367 11.9003182,52.5414495 26.0543636,52.5414495 C40.2084091,52.5414495 51.6820909,40.784367 51.6820909,26.2807156 C51.6820909,11.7776697 40.2084091,0.0199816514 26.0543636,0.0199816514 C11.9003182,0.0199816514 0.426636364,11.7776697 0.426636364,26.2807156" id="path-1"></path>
        <path d="M0.426636364,26.2807156 C0.426636364,40.784367 11.9003182,52.5414495 26.0543636,52.5414495 C40.2084091,52.5414495 51.6820909,40.784367 51.6820909,26.2807156 C51.6820909,11.7776697 40.2084091,0.0199816514 26.0543636,0.0199816514 C11.9003182,0.0199816514 0.426636364,11.7776697 0.426636364,26.2807156 Z" id="path-3"></path>
        <path d="M0.426636364,26.2807156 C0.426636364,40.784367 11.9003182,52.5414495 26.0543636,52.5414495 C40.2084091,52.5414495 51.6820909,40.784367 51.6820909,26.2807156 C51.6820909,11.7776697 40.2084091,0.0199816514 26.0543636,0.0199816514 C11.9003182,0.0199816514 0.426636364,11.7776697 0.426636364,26.2807156" id="path-5"></path>
        <path d="M0.426636364,26.2807156 C0.426636364,40.784367 11.9003182,52.5414495 26.0543636,52.5414495 C40.2084091,52.5414495 51.6820909,40.784367 51.6820909,26.2807156 C51.6820909,11.7776697 40.2084091,0.0199816514 26.0543636,0.0199816514 C11.9003182,0.0199816514 0.426636364,11.7776697 0.426636364,26.2807156 Z" id="path-7"></path>
        <path d="M0.426636364,26.2807156 C0.426636364,40.784367 11.9003182,52.5414495 26.0543636,52.5414495 C40.2084091,52.5414495 51.6820909,40.784367 51.6820909,26.2807156 C51.6820909,11.7776697 40.2084091,0.0199816514 26.0543636,0.0199816514 C11.9003182,0.0199816514 0.426636364,11.7776697 0.426636364,26.2807156" id="path-9"></path>
        <path d="M0.426636364,26.2807156 C0.426636364,40.784367 11.9003182,52.5414495 26.0543636,52.5414495 C40.2084091,52.5414495 51.6820909,40.784367 51.6820909,26.2807156 C51.6820909,11.7776697 40.2084091,0.0199816514 26.0543636,0.0199816514 C11.9003182,0.0199816514 0.426636364,11.7776697 0.426636364,26.2807156 Z" id="path-11"></path>
        <path d="M0.426636364,26.2807156 C0.426636364,40.784367 11.9003182,52.5414495 26.0543636,52.5414495 C40.2084091,52.5414495 51.6820909,40.784367 51.6820909,26.2807156 C51.6820909,11.7776697 40.2084091,0.0199816514 26.0543636,0.0199816514 C11.9003182,0.0199816514 0.426636364,11.7776697 0.426636364,26.2807156" id="path-13"></path>
        <path d="M0.426636364,26.2807156 C0.426636364,40.784367 11.9003182,52.5414495 26.0543636,52.5414495 C40.2084091,52.5414495 51.6820909,40.784367 51.6820909,26.2807156 C51.6820909,11.7776697 40.2084091,0.0199816514 26.0543636,0.0199816514 C11.9003182,0.0199816514 0.426636364,11.7776697 0.426636364,26.2807156" id="path-15"></path>
        <path d="M0.426636364,26.2807156 C0.426636364,40.784367 11.9003182,52.5414495 26.0543636,52.5414495 C40.2084091,52.5414495 51.6820909,40.784367 51.6820909,26.2807156 C51.6820909,11.7776697 40.2084091,0.0199816514 26.0543636,0.0199816514 C11.9003182,0.0199816514 0.426636364,11.7776697 0.426636364,26.2807156 Z" id="path-17"></path>
        <path d="M0.426636364,26.2807156 C0.426636364,40.784367 11.9003182,52.5414495 26.0543636,52.5414495 C40.2084091,52.5414495 51.6820909,40.784367 51.6820909,26.2807156 C51.6820909,11.7776697 40.2084091,0.0199816514 26.0543636,0.0199816514 C11.9003182,0.0199816514 0.426636364,11.7776697 0.426636364,26.2807156" id="path-19"></path>
        <path d="M0.426636364,26.2807156 C0.426636364,40.784367 11.9003182,52.5414495 26.0543636,52.5414495 C40.2084091,52.5414495 51.6820909,40.784367 51.6820909,26.2807156 C51.6820909,11.7776697 40.2084091,0.0199816514 26.0543636,0.0199816514 C11.9003182,0.0199816514 0.426636364,11.7776697 0.426636364,26.2807156 Z" id="path-21"></path>
        <path d="M0.426636364,26.2807156 C0.426636364,40.784367 11.9003182,52.5414495 26.0543636,52.5414495 C40.2084091,52.5414495 51.6820909,40.784367 51.6820909,26.2807156 C51.6820909,11.7776697 40.2084091,0.0199816514 26.0543636,0.0199816514 C11.9003182,0.0199816514 0.426636364,11.7776697 0.426636364,26.2807156" id="path-23"></path>
        <path d="M0.426636364,26.2807156 C0.426636364,40.784367 11.9003182,52.5414495 26.0543636,52.5414495 C40.2084091,52.5414495 51.6820909,40.784367 51.6820909,26.2807156 C51.6820909,11.7776697 40.2084091,0.0199816514 26.0543636,0.0199816514 C11.9003182,0.0199816514 0.426636364,11.7776697 0.426636364,26.2807156 Z" id="path-25"></path>
        <path d="M0.426636364,26.2807156 C0.426636364,40.784367 11.9003182,52.5414495 26.0543636,52.5414495 C40.2084091,52.5414495 51.6820909,40.784367 51.6820909,26.2807156 C51.6820909,11.7776697 40.2084091,0.0199816514 26.0543636,0.0199816514 C11.9003182,0.0199816514 0.426636364,11.7776697 0.426636364,26.2807156" id="path-27"></path>
        <path d="M0.426636364,26.2807156 C0.426636364,40.784367 11.9003182,52.5414495 26.0543636,52.5414495 C40.2084091,52.5414495 51.6820909,40.784367 51.6820909,26.2807156 C51.6820909,11.7776697 40.2084091,0.0199816514 26.0543636,0.0199816514 C11.9003182,0.0199816514 0.426636364,11.7776697 0.426636364,26.2807156 Z" id="path-29"></path>
        <path d="M0.426636364,26.2807156 C0.426636364,40.784367 11.9003182,52.5414495 26.0543636,52.5414495 C40.2084091,52.5414495 51.6820909,40.784367 51.6820909,26.2807156 C51.6820909,11.7776697 40.2084091,0.0199816514 26.0543636,0.0199816514 C11.9003182,0.0199816514 0.426636364,11.7776697 0.426636364,26.2807156" id="path-31"></path>
        <path d="M0.426636364,26.2807156 C0.426636364,40.784367 11.9003182,52.5414495 26.0543636,52.5414495 C40.2084091,52.5414495 51.6820909,40.784367 51.6820909,26.2807156 C51.6820909,11.7776697 40.2084091,0.0199816514 26.0543636,0.0199816514 C11.9003182,0.0199816514 0.426636364,11.7776697 0.426636364,26.2807156 Z" id="path-33"></path>
        <path d="M0.426636364,26.2807156 C0.426636364,40.784367 11.9003182,52.5414495 26.0543636,52.5414495 C40.2084091,52.5414495 51.6820909,40.784367 51.6820909,26.2807156 C51.6820909,11.7776697 40.2084091,0.0199816514 26.0543636,0.0199816514 C11.9003182,0.0199816514 0.426636364,11.7776697 0.426636364,26.2807156" id="path-35"></path>
        <path d="M0.426636364,26.2807156 C0.426636364,40.784367 11.9003182,52.5414495 26.0543636,52.5414495 C40.2084091,52.5414495 51.6820909,40.784367 51.6820909,26.2807156 C51.6820909,11.7776697 40.2084091,0.0199816514 26.0543636,0.0199816514 C11.9003182,0.0199816514 0.426636364,11.7776697 0.426636364,26.2807156 Z" id="path-37"></path>
        <path d="M0.426636364,26.2807156 C0.426636364,40.784367 11.9003182,52.5414495 26.0543636,52.5414495 C40.2084091,52.5414495 51.6820909,40.784367 51.6820909,26.2807156 C51.6820909,11.7776697 40.2084091,0.0199816514 26.0543636,0.0199816514 C11.9003182,0.0199816514 0.426636364,11.7776697 0.426636364,26.2807156" id="path-39"></path>
        <path d="M0.426636364,26.2807156 C0.426636364,40.784367 11.9003182,52.5414495 26.0543636,52.5414495 C40.2084091,52.5414495 51.6820909,40.784367 51.6820909,26.2807156 C51.6820909,11.7776697 40.2084091,0.0199816514 26.0543636,0.0199816514 C11.9003182,0.0199816514 0.426636364,11.7776697 0.426636364,26.2807156" id="path-41"></path>
        <path d="M0.426636364,26.2807156 C0.426636364,40.784367 11.9003182,52.5414495 26.0543636,52.5414495 C40.2084091,52.5414495 51.6820909,40.784367 51.6820909,26.2807156 C51.6820909,11.7776697 40.2084091,0.0199816514 26.0543636,0.0199816514 C11.9003182,0.0199816514 0.426636364,11.7776697 0.426636364,26.2807156" id="path-43"></path>
        <path d="M26.0543636,52.5414495 C40.2084091,52.5414495 51.6820909,40.784367 51.6820909,26.2807156 C51.6820909,11.7776697 40.2084091,0.0199816514 26.0543636,0.0199816514 C11.9003182,0.0199816514 0.426636364,11.7776697 0.426636364,26.2807156 C0.426636364,40.784367 11.9003182,52.5414495 26.0543636,52.5414495 Z" id="path-45"></path>
    </defs>
    <g id="booking_mvp" stroke="none" stroke-width="1" fill="none" fill-rule="evenodd">
        <g id="02_services" transform="translate(-729.000000, -139.000000)">
            <g id="Group-2" transform="translate(729.000000, 139.000000)">
                <g id="eyes_brows_booking_icon">
                    <path d="M51.6819136,31.2064349 C51.6819136,45.7100862 40.2082318,57.4671688 26.0541864,57.4671688 C11.9001409,57.4671688 0.426459091,45.7100862 0.426459091,31.2064349 C0.426459091,16.7027835 11.9001409,4.94570092 26.0541864,4.94570092 C40.2082318,4.94570092 51.6819136,16.7027835 51.6819136,31.2064349" id="Fill-1" fill="#615973"></path>
                    <g id="Group-72" transform="translate(0.000000, 4.925780)">
                        <g id="Group-5">
                            <mask id="mask-2" fill="white">
                                <use xlink:href="#path-1"></use>
                            </mask>
                            <g id="Clip-4"></g>
                            <path d="M25.3144273,14.8298972 L23.9423364,18.8758789 C23.8058364,19.2767229 23.3484727,19.1386679 23.3591091,18.6996771 L23.6332909,7.88657615 L24.3725182,7.79030092 C24.9137909,7.72006239 25.3959727,8.24140183 25.4462,8.95286972 L25.6654273,12.028833 C25.7333818,12.9867413 25.6122455,13.9513101 25.3144273,14.8298972" id="Fill-3" fill="#FFFFFF" mask="url(#mask-2)"></path>
                        </g>
                        <g id="Group-8">
                            <mask id="mask-4" fill="white">
                                <use xlink:href="#path-3"></use>
                            </mask>
                            <g id="Clip-7"></g>
                            <path d="M25.3144273,14.8298972 L23.9423364,18.8758789 C23.8058364,19.2767229 23.3484727,19.1386679 23.3591091,18.6996771 L23.6332909,7.88657615 L24.3725182,7.79030092 C24.9137909,7.72006239 25.3959727,8.24140183 25.4462,8.95286972 L25.6654273,12.028833 C25.7333818,12.9867413 25.6122455,13.9513101 25.3144273,14.8298972 Z" id="Stroke-6" stroke="#850050" stroke-linecap="round" stroke-linejoin="round" mask="url(#mask-4)"></path>
                        </g>
                        <g id="Group-11">
                            <mask id="mask-6" fill="white">
                                <use xlink:href="#path-5"></use>
                            </mask>
                            <g id="Clip-10"></g>
                            <path d="M1.41818182,1.44461284 C1.41818182,1.44461284 -6.39836364,38.751567 1.70063636,46.2894936 C2.10895455,46.6697505 3.89822727,46.0878606 3.89822727,46.0878606 C7.40290909,45.7651266 10.6558636,44.0854569 12.9940909,41.390356 L18.1899545,35.4007046 C19.6051818,33.7688697 20.6144545,31.8106679 21.1309091,29.6926128 C21.1309091,29.6926128 23.6806818,20.6494018 23.4845,15.8229248 C23.3355909,12.1693101 26.5690455,-0.833295413 25.6336364,-2.88232294 C23.0312727,-8.58678165 1.41818182,1.44461284 1.41818182,1.44461284" id="Fill-9" fill="#FFFFFF" mask="url(#mask-6)"></path>
                        </g>
                        <g id="Group-14">
                            <mask id="mask-8" fill="white">
                                <use xlink:href="#path-7"></use>
                            </mask>
                            <g id="Clip-13"></g>
                            <path d="M1.41818182,1.44461284 C1.41818182,1.44461284 -6.39836364,38.751567 1.70063636,46.2894936 C2.10895455,46.6697505 3.89822727,46.0878606 3.89822727,46.0878606 C7.40290909,45.7651266 10.6558636,44.0854569 12.9940909,41.390356 L18.1899545,35.4007046 C19.6051818,33.7688697 20.7432727,31.7537505 21.2597273,29.6356954 C21.2597273,29.6356954 23.6806818,20.6494018 23.4845,15.8229248 C23.3355909,12.1693101 27.4808182,-3.71246972 27.4808182,-3.71246972 L1.41818182,1.44461284 Z" id="Stroke-12" stroke="#5E007C" stroke-linecap="round" stroke-linejoin="round" mask="url(#mask-8)"></path>
                        </g>
                        <g id="Group-17">
                            <mask id="mask-10" fill="white">
                                <use xlink:href="#path-9"></use>
                            </mask>
                            <g id="Clip-16"></g>
                            <path d="M14.9434409,39.1632495 C13.2262591,41.1741303 10.8431227,44.0284789 8.52853182,44.7817266 C4.93048636,45.952167 4.00216818,46.5019651 1.82703182,48.8664606 C1.82703182,48.8664606 0.490395455,50.2742587 0.0283045455,50.7265706 C-3.16083182,53.8437083 -4.68301364,57.5257817 -4.39819545,61.7624972 L-3.92960455,68.724589 L13.4714864,68.724589 L37.7088045,68.724589 C37.28335,47.4756165 18.05635,45.1056716 21.6939864,27.9129743 C21.6939864,27.9129743 21.3873045,29.8790477 19.8822591,32.9792312 C18.9184864,34.9658917 16.9111682,36.8586991 14.9434409,39.1632495" id="Fill-15" fill="#FFFFFF" mask="url(#mask-10)"></path>
                        </g>
                        <g id="Group-20">
                            <mask id="mask-12" fill="white">
                                <use xlink:href="#path-11"></use>
                            </mask>
                            <g id="Clip-19"></g>
                            <path d="M14.9434409,39.1632495 C13.2262591,41.1741303 10.8431227,44.0284789 8.52853182,44.7817266 C4.93048636,45.952167 4.00216818,46.5019651 1.82703182,48.8664606 C1.82703182,48.8664606 0.490395455,50.2742587 0.0283045455,50.7265706 C-3.16083182,53.8437083 -4.68301364,57.5257817 -4.39819545,61.7624972 L-3.92960455,68.724589 L13.4714864,68.724589 L37.7088045,68.724589 C37.28335,47.4756165 17.3667591,44.7750661 21.7731682,27.5817633 C21.7731682,27.5817633 21.4032591,30.0970294 19.8822591,32.9792312 C18.8528955,34.9307725 16.9111682,36.8586991 14.9434409,39.1632495 Z" id="Stroke-18" stroke="#850050" stroke-linecap="round" stroke-linejoin="round" mask="url(#mask-12)"></path>
                        </g>
                        <g id="Group-23">
                            <mask id="mask-14" fill="white">
                                <use xlink:href="#path-13"></use>
                            </mask>
                            <g id="Clip-22"></g>
                            <path d="M9.93270909,36.0585248 C10.6678,36.152378 9.70048182,37.2368367 9.02034545,38.0294422 C7.93189091,39.2967633 7.14893636,41.0315339 3.35707273,40.6979009 C-0.773381818,40.3352037 -1.19706364,39.7696624 -1.19706364,37.7963229 C-1.19706364,36.3982128 0.0355727273,35.2423046 1.67534545,35.2743963 C2.6013,35.2925615 3.18925455,34.3528183 3.89893636,34.6077358 C6.7548,35.6322495 8.94648182,35.9325798 9.93270909,36.0585248" id="Fill-21" fill="#850050" mask="url(#mask-14)"></path>
                        </g>
                        <g id="Group-26">
                            <mask id="mask-16" fill="white">
                                <use xlink:href="#path-15"></use>
                            </mask>
                            <g id="Clip-25"></g>
                            <path d="M1.96246818,37.9646978 C1.59669545,37.9646978 1.35560455,37.8848978 1.33374091,37.8770978 C1.28233182,37.8596978 1.25515,37.8026978 1.27228636,37.7510978 C1.29001364,37.6988978 1.34555909,37.6712978 1.39696818,37.6880978 C1.40760455,37.6928978 2.52678636,38.0588978 3.64478636,37.1084978 C3.68615,37.0730978 3.74819545,37.0784978 3.78305909,37.1210978 C3.81792273,37.1630978 3.81260455,37.2260978 3.77124091,37.2614978 C3.09583182,37.8350978 2.42810455,37.9646978 1.96246818,37.9646978" id="Fill-24" fill="#850050" mask="url(#mask-16)"></path>
                        </g>
                        <g id="Group-29">
                            <mask id="mask-18" fill="white">
                                <use xlink:href="#path-17"></use>
                            </mask>
                            <g id="Clip-28"></g>
                            <path d="M1.96229091,38.1997706 C1.54629091,38.1997706 1.27210909,38.1028899 1.26088182,38.0986514 C1.18229091,38.0714037 1.1167,38.0126697 1.07888182,37.9345596 C1.04047273,37.8564495 1.03515455,37.7674404 1.06233636,37.6844862 C1.10842727,37.5500642 1.22956364,37.4616606 1.36547273,37.4616606 L1.46533636,37.4780092 C1.47242727,37.4804312 2.47106364,37.8195138 3.5022,36.9342661 C3.63515455,36.8222477 3.84433636,36.8422294 3.95306364,36.9754404 C4.06651818,37.1141009 4.04760909,37.3211835 3.91347273,37.4368349 C3.17838182,38.0677706 2.44624545,38.1997706 1.96229091,38.1997706 Z" id="Stroke-27" stroke="#850050" stroke-linecap="round" stroke-linejoin="round" mask="url(#mask-18)"></path>
                        </g>
                        <g id="Group-32">
                            <mask id="mask-20" fill="white">
                                <use xlink:href="#path-19"></use>
                            </mask>
                            <g id="Clip-31"></g>
                            <path d="M5.17973182,37.3992936 C4.69932273,37.3992936 4.20000455,37.3653853 3.69300455,37.2854587 C3.63923182,37.2769817 3.60259545,37.2255138 3.61086818,37.1704128 C3.61914091,37.1159174 3.67114091,37.0783761 3.72314091,37.0862477 C6.85673182,37.582156 9.67359545,36.2700275 9.70136818,36.2567064 C9.75100455,36.2336972 9.80891364,36.2548899 9.83195909,36.3057523 C9.85441364,36.3560092 9.83314091,36.4159541 9.78409545,36.4389633 C9.75986818,36.4504679 7.72595909,37.3992936 5.17973182,37.3992936" id="Fill-30" fill="#850050" mask="url(#mask-20)"></path>
                        </g>
                        <g id="Group-35">
                            <mask id="mask-22" fill="white">
                                <use xlink:href="#path-21"></use>
                            </mask>
                            <g id="Clip-34"></g>
                            <path d="M5.17996818,37.6264789 C4.66115,37.6264789 4.15001364,37.5871211 3.65896818,37.5096165 C3.48524091,37.4817633 3.36587727,37.314644 3.39187727,37.1366257 C3.41551364,36.9779835 3.55142273,36.8580936 3.70919545,36.8580936 C4.21442273,36.9343872 4.69424091,36.9707174 5.18174091,36.9707174 C7.63165,36.9707174 9.58874091,36.0600385 9.60824091,36.0503505 L9.65255909,36.0297633 L9.74296818,36.0200752 C9.86765,36.0200752 9.98110455,36.0951578 10.0331045,36.2108092 C10.0685591,36.2883138 10.0726955,36.3773229 10.04315,36.4602771 C10.0136045,36.5426257 9.95451364,36.6086257 9.87592273,36.6455615 C9.85878636,36.6540385 7.79001364,37.6264789 5.17996818,37.6264789 Z" id="Stroke-33" stroke="#850050" stroke-linecap="round" stroke-linejoin="round" mask="url(#mask-22)"></path>
                        </g>
                        <g id="Group-38">
                            <mask id="mask-24" fill="white">
                                <use xlink:href="#path-23"></use>
                            </mask>
                            <g id="Clip-37"></g>
                            <path d="M5.35984091,40.4691303 L1.65897727,40.4691303 C1.60461364,40.4691303 1.56088636,40.4247303 1.56088636,40.3695303 C1.56088636,40.3143303 1.60461364,40.2699303 1.65897727,40.2699303 L5.35984091,40.2699303 C5.41420455,40.2699303 5.45793182,40.3143303 5.45793182,40.3695303 C5.45793182,40.4247303 5.41420455,40.4691303 5.35984091,40.4691303" id="Fill-36" fill="#850050" mask="url(#mask-24)"></path>
                        </g>
                        <g id="Group-41">
                            <mask id="mask-26" fill="white">
                                <use xlink:href="#path-25"></use>
                            </mask>
                            <g id="Clip-40"></g>
                            <path d="M5.36001818,40.6921266 L1.65915455,40.6921266 C1.48247273,40.6921266 1.33888182,40.5463266 1.33888182,40.3675266 C1.33888182,40.1887266 1.48247273,40.0429266 1.65915455,40.0429266 L5.36001818,40.0429266 C5.53610909,40.0429266 5.6797,40.1887266 5.6797,40.3675266 C5.6797,40.5463266 5.53610909,40.6921266 5.36001818,40.6921266 Z" id="Stroke-39" stroke="#850050" stroke-linecap="round" stroke-linejoin="round" mask="url(#mask-26)"></path>
                        </g>
                        <g id="Group-44">
                            <mask id="mask-28" fill="white">
                                <use xlink:href="#path-27"></use>
                            </mask>
                            <g id="Clip-43"></g>
                            <path d="M1.92547727,35.4699949 C1.88529545,35.4699949 1.84688636,35.4441949 1.83270455,35.4033949 C1.81497727,35.3511949 1.84215909,35.2947949 1.89297727,35.2761949 L3.19829545,34.8111949 C3.39979545,34.7391949 3.62079545,34.7427949 3.82052273,34.8189949 L5.00234091,35.2773949 C5.05315909,35.2965949 5.07856818,35.3541949 5.05906818,35.4057949 C5.03956818,35.4573949 4.98343182,35.4831949 4.93202273,35.4633949 L3.75020455,35.0055949 C3.59420455,34.9449949 3.42106818,34.9425949 3.26329545,34.9989949 L1.95797727,35.4645949 C1.94734091,35.4681949 1.93611364,35.4699949 1.92547727,35.4699949" id="Fill-42" fill="#850050" mask="url(#mask-28)"></path>
                        </g>
                        <g id="Group-47">
                            <mask id="mask-30" fill="white">
                                <use xlink:href="#path-29"></use>
                            </mask>
                            <g id="Clip-46"></g>
                            <path d="M4.92723636,35.703578 L4.85337273,35.6817798 L3.67155455,35.2197798 C3.56519091,35.178 3.44405455,35.1761835 3.3371,35.2155413 L1.92541818,35.703578 C1.78891818,35.703578 1.66778182,35.6151743 1.62346364,35.4837798 C1.56614545,35.3142385 1.6536,35.1271376 1.81905455,35.0671927 L3.12496364,34.5973211 C3.37491818,34.5083119 3.65146364,34.5113394 3.89905455,34.6076147 L5.08146364,35.0696147 C5.16123636,35.1011009 5.22446364,35.1622569 5.25932727,35.2421835 C5.29419091,35.3227156 5.29655455,35.4117248 5.26523636,35.4934679 C5.21973636,35.6182018 5.09978182,35.703578 4.96800909,35.703578 L4.92723636,35.703578 Z" id="Stroke-45" stroke="#850050" stroke-linecap="round" stroke-linejoin="round" mask="url(#mask-30)"></path>
                        </g>
                        <g id="Group-50">
                            <mask id="mask-32" fill="white">
                                <use xlink:href="#path-31"></use>
                            </mask>
                            <g id="Clip-49"></g>
                            <path d="M3.20107273,31.2110574 C3.18393636,31.2110574 3.1668,31.2068574 3.15084545,31.1972574 C3.10475455,31.1690574 3.0888,31.1078574 3.11657273,31.0604574 C3.66670909,30.1178574 4.79002727,30.2636574 4.80066364,30.2654574 C4.85443636,30.2732574 4.89166364,30.3230574 4.88457273,30.3776574 C4.87689091,30.4322574 4.82548182,30.4694574 4.77407273,30.4628574 C4.73270909,30.4574574 3.76834545,30.3350574 3.28557273,31.1624574 C3.26725455,31.1936574 3.23416364,31.2110574 3.20107273,31.2110574" id="Fill-48" fill="#450056" mask="url(#mask-32)"></path>
                        </g>
                        <g id="Group-53">
                            <mask id="mask-34" fill="white">
                                <use xlink:href="#path-33"></use>
                            </mask>
                            <g id="Clip-52"></g>
                            <path d="M3.20125,31.4470018 L3.14038636,31.4470018 L3.03815909,31.4009835 C2.88629545,31.3089468 2.83606818,31.1073138 2.92588636,30.9523046 C3.40806818,30.1191303 4.27434091,30.0295156 4.62475,30.0295156 C4.74943182,30.0295156 4.82684091,30.0398092 4.82979545,30.0404147 C4.91547727,30.0525248 4.99052273,30.0973321 5.04193182,30.1675706 C5.09393182,30.2372037 5.11579545,30.3237908 5.10397727,30.410378 C5.08211364,30.5714422 4.94502273,30.6925431 4.78606818,30.6925431 C4.73702273,30.6889101 4.68443182,30.6822495 4.60347727,30.6822495 C4.31275,30.6822495 3.77975,30.7609651 3.47602273,31.2859376 C3.41811364,31.3858459 3.31293182,31.4470018 3.20125,31.4470018 Z" id="Stroke-51" stroke="#850050" stroke-linecap="round" stroke-linejoin="round" mask="url(#mask-34)"></path>
                        </g>
                        <g id="Group-56">
                            <mask id="mask-36" fill="white">
                                <use xlink:href="#path-35"></use>
                            </mask>
                            <g id="Clip-55"></g>
                            <path d="M10.7353409,36.3213254 C10.74775,36.4341254 10.5586591,36.5481254 10.3128409,36.5763254 C10.0676136,36.6045254 9.62856818,36.4689254 9.61615909,36.3561254 C9.60375,36.2433254 10.0120682,36.1437254 10.2578864,36.1155254 C10.5037045,36.0873254 10.7229318,36.2085254 10.7353409,36.3213254" id="Fill-54" fill="#850050" mask="url(#mask-36)"></path>
                        </g>
                        <g id="Group-59">
                            <mask id="mask-38" fill="white">
                                <use xlink:href="#path-37"></use>
                            </mask>
                            <g id="Clip-58"></g>
                            <path d="M10.2419909,36.8029192 C10.1102182,36.8029192 9.4354,36.7291192 9.39521818,36.3793192 C9.36153636,36.0577192 9.83249091,35.9359192 10.2331273,35.8897192 C10.6036273,35.8483192 10.9268545,36.0415192 10.9558091,36.2935192 C10.9629,36.3559192 10.9552182,36.4513192 10.8789909,36.5479192 C10.7767636,36.6775192 10.5746727,36.7711192 10.3377182,36.7975192 C10.3075818,36.8011192 10.2756727,36.8029192 10.2419909,36.8029192 Z" id="Stroke-57" stroke="#850050" stroke-linecap="round" stroke-linejoin="round" mask="url(#mask-38)"></path>
                        </g>
                        <g id="Group-62">
                            <mask id="mask-40" fill="white">
                                <use xlink:href="#path-39"></use>
                            </mask>
                            <g id="Clip-61"></g>
                            <path d="M8.23242727,44.8744811 C8.23242727,44.8744811 12.6152,43.7710811 14.9540182,45.0994811" id="Stroke-60" stroke="#850050" stroke-linecap="round" stroke-linejoin="round" mask="url(#mask-40)"></path>
                        </g>
                        <g id="Group-65">
                            <mask id="mask-42" fill="white">
                                <use xlink:href="#path-41"></use>
                            </mask>
                            <g id="Clip-64"></g>
                            <path d="M20.2732636,8.69861835 C20.9823545,9.13337064 21.6601273,9.63048991 22.3172182,10.1530404 C22.3922636,10.2123798 23.3359455,11.029811 23.3495364,11.5275358 C23.0103545,11.2181229 22.7521273,11.0025633 22.5837182,10.8857009 C22.2014,10.6198844 20.3181727,9.35014128 19.6214909,9.05283853 C18.1046273,8.40555413 17.0126273,8.28869174 15.5932636,8.99834312 C12.7232182,10.433389 9.75862727,11.7043431 7.05167273,13.4790771 C6.06662727,14.0972972 5.49403636,12.149389 6.48380909,11.5299578 C6.86967273,11.3840312 8.61994545,10.5339028 9.0714,10.306233 C9.98849091,9.84302202 10.9038091,9.37617798 11.8209,8.91357248 C12.3060364,8.66894862 15.0998545,7.25448991 16.2609909,7.10674679 C17.3074909,6.97293028 19.3284,8.11915046 20.2732636,8.69861835" id="Fill-63" fill="#850050" mask="url(#mask-42)"></path>
                        </g>
                        <g id="Group-68">
                            <mask id="mask-44" fill="white">
                                <use xlink:href="#path-43"></use>
                            </mask>
                            <g id="Clip-67"></g>
                            <path d="M8.29937727,17.3378367 C8.29937727,17.3378367 8.31119545,17.2966624 8.33365,17.2203688 C8.35728636,17.1434697 8.38978636,17.0308459 8.43528636,16.8885523 C8.45892273,16.8171028 8.48905909,16.7377817 8.51978636,16.6518 C8.55110455,16.5658183 8.58360455,16.4719651 8.62496818,16.3732679 C8.66692273,16.2745706 8.71183182,16.1692128 8.75910455,16.0584055 C8.78155909,16.0026991 8.80933182,15.9463872 8.83828636,15.8882587 C8.86724091,15.8307358 8.89619545,15.7713963 8.92633182,15.7114514 C8.98305909,15.589745 9.05633182,15.4656165 9.12783182,15.336644 C9.19519545,15.2064606 9.28501364,15.0762771 9.37010455,14.9400385 C9.39196818,14.9067358 9.41205909,14.872222 9.43628636,14.8383138 C9.45992273,14.8044055 9.48415,14.7704972 9.50837727,14.7359835 C9.55683182,14.6675615 9.60646818,14.5979284 9.65610455,14.5276899 C9.71046818,14.4586624 9.76483182,14.3890294 9.82037727,14.3187908 C9.84815,14.2836716 9.87651364,14.2479468 9.90487727,14.2128275 C9.93560455,14.1777083 9.96633182,14.1431945 9.99705909,14.1080752 C10.2375591,13.8253046 10.5259227,13.5455615 10.8503318,13.2773229 C10.8911045,13.2434147 10.9318773,13.2101119 10.97265,13.1768092 C11.0146045,13.1435064 11.0595136,13.1114147 11.10265,13.0793229 C11.1901045,13.0145339 11.2751955,12.9479284 11.3703318,12.887378 C11.5535136,12.7620385 11.7485136,12.6433596 11.9517864,12.5313413 L12.1054227,12.4489927 L12.1438318,12.4284055 L12.1633318,12.4181119 L12.1727864,12.4126624 C12.1698318,12.4144789 12.1828318,12.4078183 12.1828318,12.4078183 L12.18815,12.4053963 L12.2655591,12.3684606 L12.4209682,12.2951945 L12.4989682,12.2582587 L12.5828773,12.2231394 C12.6390136,12.1995248 12.69515,12.1759101 12.7512864,12.1522954 C12.77965,12.1407908 12.8074227,12.1286807 12.8357864,12.1177817 L12.9208773,12.0862954 C13.0349227,12.0451211 13.1466045,12.0015248 13.2630136,11.967011 C13.7233318,11.8168459 14.1984227,11.7108826 14.6616955,11.6430661 C14.7769227,11.6242954 14.8927409,11.6127908 15.0067864,11.5994697 C15.03515,11.5958367 15.0635136,11.5928092 15.0918773,11.5897817 C15.1202409,11.5873596 15.1486045,11.5849376 15.1769682,11.5825156 C15.2336955,11.5776716 15.2898318,11.573433 15.3453773,11.568589 C15.4015136,11.563745 15.4570591,11.5619284 15.5120136,11.5589009 C15.5675591,11.5564789 15.6225136,11.5540569 15.6768773,11.5510294 C15.7856045,11.5473963 15.89315,11.5467908 15.9989227,11.5443688 C16.1041045,11.5449743 16.2081045,11.5455798 16.3097409,11.5473963 C16.4113773,11.5510294 16.5118318,11.5534514 16.6099227,11.5589009 C16.7068318,11.5655615 16.80315,11.5704055 16.8965136,11.5788826 C16.9898773,11.5873596 17.0814682,11.5940202 17.1701045,11.6043138 C17.3479682,11.6236899 17.5169682,11.6454881 17.6759227,11.6697083 C17.8342864,11.6945339 17.9831955,11.7211761 18.1214682,11.7490294 C18.3980136,11.8029193 18.6326045,11.8610477 18.8222864,11.9131211 C19.0125591,11.9651945 19.1567409,12.0124239 19.2542409,12.0451211 C19.3517409,12.0784239 19.4013773,12.0984055 19.4013773,12.0984055 C19.4102409,12.1020385 19.4120136,12.1093046 19.4061045,12.1153596 C19.4007864,12.1214147 19.3907409,12.1232312 19.3824682,12.1214147 C19.3824682,12.1214147 19.3292864,12.1068826 19.2264682,12.0820569 C19.1242409,12.0572312 18.9717864,12.0239284 18.7761955,11.9857817 C18.5806045,11.9482404 18.3401045,11.9070661 18.0611955,11.8689193 C17.9223318,11.8495431 17.7728318,11.8319835 17.6144682,11.8168459 C17.4566955,11.8004972 17.2894682,11.7859651 17.1139682,11.7756716 C17.0271045,11.769011 16.9366955,11.766589 16.8456955,11.7623505 C16.7541045,11.7581119 16.66015,11.7575064 16.5656045,11.7550844 C16.4704682,11.7532679 16.3735591,11.7538734 16.2754682,11.7532679 C16.1767864,11.7550844 16.0769227,11.7575064 15.9758773,11.7599284 C15.8742409,11.765378 15.7714227,11.769011 15.6674227,11.7762771 C15.6160136,11.7799101 15.5634227,11.7841486 15.5108318,11.7883872 C15.4582409,11.7926257 15.40565,11.7962587 15.3530591,11.8023138 C15.1409227,11.8235064 14.92465,11.8495431 14.7077864,11.8870844 C14.2734682,11.9585339 13.83265,12.0651028 13.4054227,12.2073963 C13.2966955,12.2406991 13.1938773,12.2830844 13.0881045,12.3212312 L13.0089227,12.3509009 C12.9829227,12.360589 12.9586955,12.3720936 12.9332864,12.3823872 L12.7820136,12.4465706 L12.7063773,12.4780569 L12.6289682,12.5149927 L12.47415,12.5888642 L12.3967409,12.6258 L12.3293773,12.6615248 L12.1851955,12.7384239 C11.9943318,12.8425706 11.81115,12.953378 11.6368318,13.0708459 C11.5470136,13.1271578 11.4654682,13.1895248 11.3815591,13.2494697 C11.3401955,13.2803505 11.2970591,13.3094147 11.2574682,13.3409009 C11.2178773,13.3723872 11.1782864,13.4038734 11.1392864,13.4353596 C10.8249227,13.686644 10.5418773,13.950644 10.2978318,14.2188826 C10.2665136,14.2521853 10.2351955,14.2854881 10.2044682,14.3181853 C10.1755136,14.3520936 10.14715,14.3853963 10.1181955,14.4193046 C10.0608773,14.4859101 10.0035591,14.5525156 9.94742273,14.6179101 C9.89483182,14.6845156 9.84283182,14.7511211 9.79201364,14.8165156 C9.76601364,14.8492128 9.74060455,14.8819101 9.71519545,14.9146073 C9.68978636,14.9466991 9.66851364,14.9800018 9.64487727,15.0120936 C9.55387727,15.1428826 9.45992273,15.2688275 9.38133182,15.3935615 C9.30096818,15.5182954 9.21883182,15.6375798 9.15265,15.7550477 C9.11837727,15.8137817 9.08469545,15.8706991 9.05160455,15.927011 C9.01851364,15.9833229 8.98483182,16.0378183 8.95705909,16.0917083 C8.89796818,16.1994881 8.84242273,16.3018183 8.79042273,16.3980936 C8.76324091,16.4459284 8.74196818,16.4931578 8.71951364,16.5379651 C8.69705909,16.583378 8.67519545,16.6269743 8.65392273,16.6687541 C8.61255909,16.7529193 8.57237727,16.8298183 8.53928636,16.9000569 C8.47665,17.0405339 8.42346818,17.1507358 8.38919545,17.2264239 C8.35374091,17.3015064 8.33483182,17.3414697 8.33483182,17.3414697 C8.33187727,17.3487358 8.32124091,17.3529743 8.31178636,17.3511578 C8.30292273,17.3499468 8.29760455,17.3438917 8.29937727,17.3378367" id="Fill-66" fill="#850050" mask="url(#mask-44)"></path>
                        </g>
                        <g id="Group-71">
                            <mask id="mask-46" fill="white">
                                <use xlink:href="#path-45"></use>
                            </mask>
                            <g id="Clip-70"></g>
                            <path d="M10.1223909,17.9905101 C12.0806636,18.4325284 13.6418455,18.6468771 15.2987545,18.3622899 C18.3513909,17.8385284 21.0772545,14.4640514 21.0772545,14.4640514 C20.9295273,14.7577211 20.5277091,15.3577761 20.1075727,15.9087853 C20.0691636,15.9590422 20.0892545,16.0341248 20.1483455,16.0547119 C22.0906636,16.721978 23.0160273,14.8340147 23.0160273,14.8340147 C23.0160273,14.8340147 22.0457545,17.2402899 19.8398909,16.7250055 C19.8026636,16.7159229 19.7825727,16.7686018 19.8156636,16.787978 C21.4004818,17.718033 22.6272091,16.4192257 22.6272091,16.4192257 C22.6272091,16.4192257 21.2787545,18.1552073 19.4705727,17.4346569 C19.4268455,17.4170972 19.3931636,17.4782532 19.4298,17.5085284 C20.8013,18.6275009 22.2626182,17.7470972 22.2626182,17.7470972 C22.2626182,17.7470972 20.3291636,19.2681248 18.6090273,18.040767 C19.4670273,19.0931339 20.6364364,19.0786018 20.6364364,19.0786018 C20.6364364,19.0786018 18.8849818,19.6447486 17.7717091,18.1509688 C17.7658,18.1418862 17.7528,18.1503633 17.7581182,18.1594459 C18.2686636,19.0755743 19.6768,20.018345 19.6768,20.018345 C19.6768,20.018345 18.1197545,19.7373908 17.2582091,18.6529321 C17.2357545,18.6244734 17.1920273,18.6517211 17.2079818,18.6844183 C17.6381636,19.5969138 18.5056182,20.5911523 18.5056182,20.5911523 C18.5056182,20.5911523 17.0460727,19.8996661 16.4492545,18.6959229 C16.4415727,18.6801798 16.4232545,18.6898679 16.4232545,18.7074275 C16.4031636,19.490345 17.5436182,20.9514275 17.5436182,20.9514275 C17.5436182,20.9514275 16.3570727,20.1085651 15.7667545,18.7588954 C15.7437091,18.7661615 15.7484364,18.764345 15.7253909,18.771611 C15.8630727,19.8663633 16.6170727,21.2269321 16.6170727,21.2269321 C16.6170727,21.2269321 15.7915727,20.4052624 15.0854364,19.1131156 C15.0724364,19.0888954 15.0358,19.1010055 15.0411182,19.1288587 C15.2426182,20.2345101 15.3944818,21.4806385 15.3944818,21.4806385 C15.3944818,21.4806385 14.6883455,20.4979046 14.3160727,19.4104183 C14.3072091,19.3843817 14.2693909,19.3904367 14.2688,19.4182899 C14.2451636,20.4833725 13.6099364,21.5345284 13.6099364,21.5345284 C13.6099364,21.5345284 13.7570727,20.1618495 13.5898455,19.1645835 C13.5880727,19.1524734 13.5709364,19.1542899 13.5715273,19.1664 C13.5863,20.2133174 12.7011182,21.206345 12.7011182,21.206345 C12.7011182,21.206345 13.1732545,19.887556 12.8671636,18.9859596 C12.8600727,18.9665835 12.8317091,18.9714275 12.8323,18.9920147 C12.8736636,20.0522532 11.8336636,21.0234826 11.8336636,21.0234826 C11.8336636,21.0234826 12.1202545,19.8603083 11.9878909,18.835189 C11.9861182,18.8224734 11.9689818,18.8230789 11.9666182,18.835189 C11.7923,19.7858312 10.6004364,20.5088037 10.6004364,20.5088037 C10.6004364,20.5088037 11.2533909,19.435244 11.1245727,18.6438495 C11.1210273,18.6214459 11.0897091,18.6184183 11.0843909,18.640822 C10.9183455,19.3613725 9.95693636,19.8506202 9.95693636,19.8506202 C9.95693636,19.8506202 10.4349818,19.1403633 10.3150273,18.442822 C10.3120727,18.4264734 10.2878455,18.4252624 10.2837091,18.441611 C10.1466182,19.0089688 9.36898182,19.3904367 9.36898182,19.3904367 C9.36898182,19.3904367 9.75957273,18.9193541 9.78793636,18.4276844 C9.78911818,18.4064917 9.76252727,18.3998312 9.75307273,18.4179963 C9.52202727,18.8860514 8.90393636,19.1900147 8.90393636,19.1900147 C8.90393636,19.1900147 9.27620909,18.7407303 9.31993636,18.2617761 C9.32820909,18.1655009 9.26084545,18.0783083 9.16866364,18.0565101 C8.80466364,17.9699229 8.46784545,17.8918128 8.16884545,17.8306569 C7.98684545,17.7937211 8.79520909,17.6907853 10.1223909,17.9905101" id="Fill-69" fill="#850050" mask="url(#mask-46)"></path>
                        </g>
                    </g>
                    <g id="Group-77" transform="translate(20.681818, 0.081743)" stroke="#850050" stroke-linecap="round" stroke-linejoin="round">
                        <path d="M1.05105,32.6570422 C1.91495909,29.4351523 2.87577727,25.3316477 2.67959545,20.5051706 C2.53068636,16.851556 6.07082273,5.87496881 4.58882273,0.220766972" id="Stroke-73"></path>
                        <path d="M15.1756682,64.8904734 C11.2366682,50.784033 -2.89610455,47.7147303 1.09135,32.4257394" id="Stroke-75"></path>
                    </g>
                </g>
            </g>
        </g>
    </g>
</svg>